{"count":3365,"next":"https://dev.getlinked.ai/assessments/my-questions/?page=2","previous":null,"results":[{"id":"a39eb5cf-418a-4d47-a6b1-66126efdae91","type":"essay","question":"nan","answer_options":null,"answer":null,"role":null,"experience_level":null,"category":null,"points":20,"label":null,"tags":null,"test":null,"section":null,"is_custom":true,"time":3000,"creator":10,"created_at":"2024-11-14T03:43:47.776905+01:00","updated_at":"2024-11-14T03:43:47.776930+01:00","instructions":null,"image_urls":null,"has_image":false,"is_shuffled":false},{"id":"4c69f425-8d15-4435-8138-34caf0ad1dd8","type":"essay","question":"Describe the Django REST framework and its advantages in building RESTful APIs.","answer_options":null,"answer":null,"role":null,"experience_level":null,"category":null,"points":20,"label":null,"tags":null,"test":null,"section":null,"is_custom":true,"time":3000,"creator":10,"created_at":"2024-11-14T03:43:47.776973+01:00","updated_at":"2024-11-14T03:43:47.776979+01:00","instructions":null,"image_urls":null,"has_image":false,"is_shuffled":false},{"id":"4d59a200-10eb-4682-9535-95a1931f085e","type":"essay","question":"Describe the Django REST framework and its advantages in building RESTful APIs.","answer_options":null,"answer":null,"role":null,"experience_level":null,"category":null,"points":20,"label":null,"tags":null,"test":null,"section":null,"is_custom":true,"time":3000,"creator":10,"created_at":"2024-11-14T03:43:47.777012+01:00","updated_at":"2024-11-14T03:43:47.777018+01:00","instructions":null,"image_urls":null,"has_image":false,"is_shuffled":false},{"id":"4fbd1ccd-c55f-47e2-b368-8993199116a5","type":null,"question":null,"answer_options":null,"answer":null,"role":null,"experience_level":null,"category":null,"points":0,"label":null,"tags":null,"test":null,"section":null,"is_custom":true,"time":3000,"creator":10,"created_at":"2024-10-31T18:28:47.978259+01:00","updated_at":"2024-10-31T18:28:48.024333+01:00","instructions":null,"image_urls":[],"has_image":false,"is_shuffled":false},{"id":"455c5bc3-28ff-4452-bd45-14034da7f8fa","type":"true_false","question":"Django’s ORM supports raw SQL queries.","answer_options":["True","False"],"answer":["True"],"role":null,"experience_level":null,"category":null,"points":10,"label":null,"tags":null,"test":null,"section":null,"is_custom":true,"time":3000,"creator":10,"created_at":"2024-11-14T03:23:33.949730+01:00","updated_at":"2024-11-14T03:23:33.949735+01:00","instructions":null,"image_urls":null,"has_image":false,"is_shuffled":false},{"id":"9b1dfe54-5a6a-43ab-93e9-c338182ecfba","type":"essay","question":"Describe the Django REST framework and its advantages in building RESTful APIs.","answer_options":null,"answer":null,"role":null,"experience_level":null,"category":null,"points":20,"label":null,"tags":null,"test":null,"section":null,"is_custom":true,"time":3000,"creator":10,"created_at":"2024-11-14T03:28:53.809748+01:00","updated_at":"2024-11-14T03:28:53.809785+01:00","instructions":null,"image_urls":null,"has_image":false,"is_shuffled":false},{"id":"e19b51cd-5d63-4a31-96d9-63e36ceaa6cc","type":"essay","question":"Describe the Django REST framework and its advantages in building RESTful APIs.","answer_options":null,"answer":null,"role":null,"experience_level":null,"category":null,"points":20,"label":null,"tags":null,"test":null,"section":null,"is_custom":true,"time":3000,"creator":10,"created_at":"2024-11-14T03:43:47.777052+01:00","updated_at":"2024-11-14T03:43:47.777058+01:00","instructions":null,"image_urls":null,"has_image":false,"is_shuffled":false},{"id":"86c4b7b7-75fb-4772-b506-c27a0a8dc888","type":"true_false","question":"Django's ORM (Object-Relational Mapping) allows developers to interact with databases using Python code.","answer_options":["True","False"],"answer":["True"],"role":null,"experience_level":null,"category":null,"points":15,"label":null,"tags":null,"test":null,"section":null,"is_custom":true,"time":3000,"creator":10,"created_at":"2024-11-14T03:43:47.777101+01:00","updated_at":"2024-11-14T03:43:47.777108+01:00","instructions":null,"image_urls":null,"has_image":false,"is_shuffled":false},{"id":"e8ed6f4a-3305-4c90-89f9-038e4b48934b","type":"true_false","question":"Django's ORM (Object-Relational Mapping) allows developers to interact with databases using Python code.","answer_options":["True","False"],"answer":["True"],"role":null,"experience_level":null,"category":null,"points":15,"label":null,"tags":null,"test":null,"section":null,"is_custom":true,"time":3000,"creator":10,"created_at":"2024-11-14T03:43:47.777148+01:00","updated_at":"2024-11-14T03:43:47.777153+01:00","instructions":null,"image_urls":null,"has_image":false,"is_shuffled":false},{"id":"cde8b017-ecb1-4972-b1d4-be3f1f008760","type":"true_false","question":"Django's ORM (Object-Relational Mapping) allows developers to interact with databases using Python code.","answer_options":["True","False"],"answer":["True"],"role":null,"experience_level":null,"category":null,"points":15,"label":null,"tags":null,"test":null,"section":null,"is_custom":true,"time":3000,"creator":10,"created_at":"2024-11-14T03:43:47.777180+01:00","updated_at":"2024-11-14T03:43:47.777183+01:00","instructions":null,"image_urls":null,"has_image":false,"is_shuffled":false},{"id":"70622729-4aec-4364-ac8d-e5186ca9f77e","type":"fill_in_the_blanks","question":"The primary key field in a Django model is typically named _________.","answer_options":["id","primary_key","key","unique_id"],"answer":["id"],"role":null,"experience_level":null,"category":null,"points":5,"label":null,"tags":null,"test":null,"section":null,"is_custom":true,"time":3000,"creator":10,"created_at":"2024-11-14T03:43:47.777225+01:00","updated_at":"2024-11-14T03:43:47.777229+01:00","instructions":null,"image_urls":null,"has_image":false,"is_shuffled":false},{"id":"badfe377-c1c3-4a9a-805d-c390aed36f21","type":"multiple_choice","question":"Which method is used to create a new record in a Django model?","answer_options":[".create()",".save()",".insert()",".update()"],"answer":[".save()"],"role":null,"experience_level":null,"category":null,"points":10,"label":null,"tags":null,"test":null,"section":null,"is_custom":true,"time":3000,"creator":10,"created_at":"2024-11-14T03:43:47.777254+01:00","updated_at":"2024-11-14T03:43:47.777257+01:00","instructions":null,"image_urls":null,"has_image":false,"is_shuffled":false},{"id":"1ffef304-07aa-4bf8-85b4-ccf99d2ea474","type":"multiple_choice","question":"Which of the following is used for routing URLs to views in Django?","answer_options":["URLs.py","urls.py","views.py","models.py"],"answer":["urls.py"],"role":null,"experience_level":null,"category":null,"points":10,"label":null,"tags":null,"test":null,"section":null,"is_custom":true,"time":3000,"creator":10,"created_at":"2024-11-14T03:43:47.777283+01:00","updated_at":"2024-11-14T03:43:47.777286+01:00","instructions":null,"image_urls":null,"has_image":false,"is_shuffled":false},{"id":"02e6ac78-eb8f-4881-bff6-38e76e635306","type":"multiple_choice","question":"Which method is used to create a new record in a Django model?","answer_options":[".create()",".save()",".insert()",".update()"],"answer":[".save()"],"role":null,"experience_level":null,"category":null,"points":10,"label":null,"tags":null,"test":null,"section":null,"is_custom":true,"time":3000,"creator":10,"created_at":"2024-11-14T03:15:22.099154+01:00","updated_at":"2024-11-14T03:15:22.099158+01:00","instructions":null,"image_urls":null,"has_image":false,"is_shuffled":false},{"id":"6368b12a-5677-4c7a-a97a-dd898b8c844f","type":"multiple_choice","question":"Which of the following is used for routing URLs to views in Django?","answer_options":["URLs.py","urls.py","views.py","models.py"],"answer":["urls.py"],"role":null,"experience_level":null,"category":null,"points":10,"label":null,"tags":null,"test":null,"section":null,"is_custom":true,"time":3000,"creator":10,"created_at":"2024-11-14T03:15:22.099183+01:00","updated_at":"2024-11-14T03:15:22.099187+01:00","instructions":null,"image_urls":null,"has_image":false,"is_shuffled":false},{"id":"9bc59da6-5d33-49f8-a242-443d95aa1601","type":"multiple_choice","question":"The numbers in the figures below have the same mathematical relationship to one another.\nWhat number should replace the question mark in the figure below?","answer_options":["2","4","6","1"],"answer":["2"],"role":1,"experience_level":"intermediate_level","category":null,"points":0,"label":null,"tags":["Cognitive","OOP"],"test":null,"section":null,"is_custom":true,"time":3000,"creator":10,"created_at":"2024-11-12T18:41:48.605572+01:00","updated_at":"2024-11-12T18:41:48.611479+01:00","instructions":null,"image_urls":[],"has_image":false,"is_shuffled":false},{"id":"ab4ff243-b1c6-499e-a49d-e48b04f1069e","type":"multiple_choice","question":"Which Django template tag is used for including a file?","answer_options":["{% include %}","{% static %}","{% extend %}","{% load %}"],"answer":["{% include %}"],"role":null,"experience_level":null,"category":null,"points":15,"label":null,"tags":null,"test":null,"section":null,"is_custom":true,"time":3000,"creator":10,"created_at":"2024-11-14T03:43:47.777311+01:00","updated_at":"2024-11-14T03:43:47.777314+01:00","instructions":null,"image_urls":null,"has_image":false,"is_shuffled":false},{"id":"8be25a1d-87ee-44d0-a2cb-e53dc52cc7cc","type":"multiple_choice","question":"Which Django template tag is used for including a file?","answer_options":["{% include %}","{% static %}","{% extend %}","{% load %}"],"answer":["{% include %}"],"role":null,"experience_level":null,"category":null,"points":15,"label":null,"tags":null,"test":null,"section":null,"is_custom":true,"time":3000,"creator":10,"created_at":"2024-11-14T03:15:22.099211+01:00","updated_at":"2024-11-14T03:15:22.099215+01:00","instructions":null,"image_urls":null,"has_image":false,"is_shuffled":false},{"id":"c8ac885f-e656-4114-9a67-c32bb7f47ff2","type":"multiple_choice","question":"What is the purpose of the Django 'migrations' feature?","answer_options":["To track changes to the database schema","To manage user permissions","To load initial data"],"answer":["To track changes to the database schema"],"role":null,"experience_level":null,"category":null,"points":20,"label":null,"tags":null,"test":null,"section":null,"is_custom":true,"time":3000,"creator":10,"created_at":"2024-11-14T03:15:22.099239+01:00","updated_at":"2024-11-14T03:15:22.099242+01:00","instructions":null,"image_urls":null,"has_image":false,"is_shuffled":false},{"id":"6c8bdc09-923e-4ba2-951a-0b4ec9e22978","type":"multiple_choice","question":"What is the purpose of the Django 'migrations' feature?","answer_options":["To track changes to the database schema","To manage user permissions","To load initial data"],"answer":["To track changes to the database schema"],"role":null,"experience_level":null,"category":null,"points":20,"label":null,"tags":null,"test":null,"section":null,"is_custom":true,"time":3000,"creator":10,"created_at":"2024-11-14T03:43:47.777338+01:00","updated_at":"2024-11-14T03:43:47.777342+01:00","instructions":null,"image_urls":null,"has_image":false,"is_shuffled":false},{"id":"b8f5f7aa-1e1b-4cb6-b4bf-97ddb8daba57","type":"multiple_choice","question":"Which Django feature helps manage forms easily?","answer_options":["Form handling","ModelForm","FormManager","Forms.py"],"answer":["ModelForm"],"role":null,"experience_level":null,"category":null,"points":15,"label":null,"tags":null,"test":null,"section":null,"is_custom":true,"time":3000,"creator":10,"created_at":"2024-11-14T03:43:47.777368+01:00","updated_at":"2024-11-14T03:43:47.777374+01:00","instructions":null,"image_urls":null,"has_image":false,"is_shuffled":false},{"id":"c32f0acb-51c7-4ba9-bbba-06cb619b95e2","type":"true_false","question":"Django is based on the MVC architecture pattern.","answer_options":["True","False"],"answer":["True"],"role":null,"experience_level":null,"category":null,"points":10,"label":null,"tags":null,"test":null,"section":null,"is_custom":true,"time":3000,"creator":10,"created_at":"2024-11-14T03:43:47.777413+01:00","updated_at":"2024-11-14T03:43:47.777418+01:00","instructions":null,"image_urls":null,"has_image":false,"is_shuffled":false},{"id":"67c65351-2d2c-40fd-8456-1f37efb34b9a","type":"fill_in_the_blanks","question":"Django views are typically stored in the ________ directory.","answer_options":["views","views.py","controllers","controllers.py"],"answer":["views.py"],"role":null,"experience_level":null,"category":null,"points":5,"label":null,"tags":null,"test":null,"section":null,"is_custom":true,"time":3000,"creator":10,"created_at":"2024-11-14T03:43:47.777462+01:00","updated_at":"2024-11-14T03:43:47.777468+01:00","instructions":null,"image_urls":null,"has_image":false,"is_shuffled":false},{"id":"fdfaeb97-abdc-437b-8f45-f071e1bd3c8e","type":"multiple_choice","question":"Which is a common feature of Django's admin interface?","answer_options":["CRUD functionality","User authentication","Pagination","Database optimization"],"answer":["CRUD functionality"],"role":null,"experience_level":null,"category":null,"points":15,"label":null,"tags":null,"test":null,"section":null,"is_custom":true,"time":3000,"creator":10,"created_at":"2024-11-14T03:43:47.777512+01:00","updated_at":"2024-11-14T03:43:47.777518+01:00","instructions":null,"image_urls":null,"has_image":false,"is_shuffled":false},{"id":"b4792c87-1962-4e3a-98e9-915439510e60","type":"true_false","question":"In Django, a model is a Python class that defines the structure of a database table.","answer_options":["True","False"],"answer":["True"],"role":null,"experience_level":null,"category":null,"points":10,"label":null,"tags":null,"test":null,"section":null,"is_custom":true,"time":3000,"creator":10,"created_at":"2024-11-14T03:43:47.777559+01:00","updated_at":"2024-11-14T03:43:47.777565+01:00","instructions":null,"image_urls":null,"has_image":false,"is_shuffled":false},{"id":"5a491bc7-7243-4c48-a4be-1757d1bdf48f","type":"multiple_choice","question":"What is the purpose of Django's 'settings.py' file?","answer_options":["To define database connections","To define static file paths","To manage user authentication","To store project configurations"],"answer":["To store project configurations"],"role":null,"experience_level":null,"category":null,"points":15,"label":null,"tags":null,"test":null,"section":null,"is_custom":true,"time":3000,"creator":10,"created_at":"2024-11-14T03:43:47.777593+01:00","updated_at":"2024-11-14T03:43:47.777597+01:00","instructions":null,"image_urls":null,"has_image":false,"is_shuffled":false},{"id":"3d4f3322-b3bb-49a3-8049-48d58700a90b","type":"multiple_choice","question":"Which of the following is NOT a valid Django model field type?","answer_options":["IntegerField","CharField","DateField","ColorField"],"answer":["ColorField"],"role":null,"experience_level":null,"category":null,"points":10,"label":null,"tags":null,"test":null,"section":null,"is_custom":true,"time":3000,"creator":10,"created_at":"2024-11-14T03:43:47.777621+01:00","updated_at":"2024-11-14T03:43:47.777624+01:00","instructions":null,"image_urls":null,"has_image":false,"is_shuffled":false},{"id":"16b0a7fe-afc5-4394-b863-11cec3a74946","type":"true_false","question":"In Django, middleware components are executed before the request reaches a view.","answer_options":["True","False"],"answer":["True"],"role":null,"experience_level":null,"category":null,"points":10,"label":null,"tags":null,"test":null,"section":null,"is_custom":true,"time":3000,"creator":10,"created_at":"2024-11-14T03:43:47.777646+01:00","updated_at":"2024-11-14T03:43:47.777649+01:00","instructions":null,"image_urls":null,"has_image":false,"is_shuffled":false},{"id":"9a051eaa-ca66-48aa-abd6-f2c2e3b64e98","type":"multiple_choice","question":"What is the primary key in a Django model?","answer_options":["A unique identifier for each record","A default integer ID field","A foreign key to another model","A composite of fields"],"answer":["A unique identifier for each record"],"role":null,"experience_level":null,"category":null,"points":15,"label":null,"tags":null,"test":null,"section":null,"is_custom":true,"time":3000,"creator":10,"created_at":"2024-11-14T03:43:47.777672+01:00","updated_at":"2024-11-14T03:43:47.777675+01:00","instructions":null,"image_urls":null,"has_image":false,"is_shuffled":false},{"id":"255813ac-54a7-407f-a313-2ce8193746de","type":"multiple_choice","question":"Which method is used to retrieve a model instance by its primary key in Django?","answer_options":[".get()",".retrieve()",".find()",".query()"],"answer":[".get()"],"role":null,"experience_level":null,"category":null,"points":10,"label":null,"tags":null,"test":null,"section":null,"is_custom":true,"time":3000,"creator":10,"created_at":"2024-11-14T03:43:47.777699+01:00","updated_at":"2024-11-14T03:43:47.777702+01:00","instructions":null,"image_urls":null,"has_image":false,"is_shuffled":false},{"id":"9126e860-78ac-4048-a4d8-b9d4b97c06c7","type":"multiple_choice","question":"Which Django feature helps manage forms easily?","answer_options":["Form handling","ModelForm","FormManager","Forms.py"],"answer":["ModelForm"],"role":null,"experience_level":null,"category":null,"points":15,"label":null,"tags":null,"test":null,"section":null,"is_custom":true,"time":3000,"creator":10,"created_at":"2024-11-14T03:15:22.099267+01:00","updated_at":"2024-11-14T03:15:22.099270+01:00","instructions":null,"image_urls":null,"has_image":false,"is_shuffled":false},{"id":"59fbeb42-aa78-4450-87f3-d242c89f5224","type":"multiple_choice","question":"What is the default database backend used by Django?","answer_options":["MySQL","PostgreSQL","SQLite","Oracle"],"answer":["SQLite"],"role":null,"experience_level":null,"category":null,"points":10,"label":null,"tags":null,"test":null,"section":null,"is_custom":true,"time":3000,"creator":10,"created_at":"2024-11-14T03:43:47.777750+01:00","updated_at":"2024-11-14T03:43:47.777756+01:00","instructions":null,"image_urls":null,"has_image":false,"is_shuffled":false},{"id":"899a1d27-c571-4519-9bcd-0fb17662c711","type":"multiple_choice","question":"Which of the following is a valid way to create a new Django app?","answer_options":["python manage.py startproject","python manage.py startapp","python startapp","python manage.py createapp"],"answer":["python manage.py startapp"],"role":null,"experience_level":null,"category":null,"points":15,"label":null,"tags":null,"test":null,"section":null,"is_custom":true,"time":3000,"creator":10,"created_at":"2024-11-14T03:43:47.777795+01:00","updated_at":"2024-11-14T03:43:47.777801+01:00","instructions":null,"image_urls":null,"has_image":false,"is_shuffled":false},{"id":"91fb5fa3-240c-48c0-9277-1b138e2f44c0","type":"true_false","question":"Django is based on the MVC architecture pattern.","answer_options":["True","False"],"answer":["True"],"role":null,"experience_level":null,"category":null,"points":10,"label":null,"tags":null,"test":null,"section":null,"is_custom":true,"time":3000,"creator":10,"created_at":"2024-11-14T03:15:22.099293+01:00","updated_at":"2024-11-14T03:15:22.099297+01:00","instructions":null,"image_urls":null,"has_image":false,"is_shuffled":false},{"id":"1a80cc7e-23f0-40ed-b269-1e735e05b006","type":"fill_in_the_blanks","question":"Django views are typically stored in the ________ directory.","answer_options":["views","views.py","controllers","controllers.py"],"answer":["views.py"],"role":null,"experience_level":null,"category":null,"points":5,"label":null,"tags":null,"test":null,"section":null,"is_custom":true,"time":3000,"creator":10,"created_at":"2024-11-14T03:15:22.099321+01:00","updated_at":"2024-11-14T03:15:22.099325+01:00","instructions":null,"image_urls":null,"has_image":false,"is_shuffled":false},{"id":"088cf8a1-b2e7-4420-a594-8450f0b67578","type":"multiple_choice","question":"Which is a common feature of Django's admin interface?","answer_options":["CRUD functionality","User authentication","Pagination","Database optimization"],"answer":["CRUD functionality"],"role":null,"experience_level":null,"category":null,"points":15,"label":null,"tags":null,"test":null,"section":null,"is_custom":true,"time":3000,"creator":10,"created_at":"2024-11-14T03:15:22.099349+01:00","updated_at":"2024-11-14T03:15:22.099352+01:00","instructions":null,"image_urls":null,"has_image":false,"is_shuffled":false},{"id":"e3fbc0f1-e05e-4b39-b14a-656f38783527","type":"true_false","question":"In Django, a model is a Python class that defines the structure of a database table.","answer_options":["True","False"],"answer":["True"],"role":null,"experience_level":null,"category":null,"points":10,"label":null,"tags":null,"test":null,"section":null,"is_custom":true,"time":3000,"creator":10,"created_at":"2024-11-14T03:15:22.099381+01:00","updated_at":"2024-11-14T03:15:22.099385+01:00","instructions":null,"image_urls":null,"has_image":false,"is_shuffled":false},{"id":"db18fbd8-9b07-4aa1-be26-4f93e56e17dd","type":"multiple_choice","question":"What is the purpose of Django's 'settings.py' file?","answer_options":["To define database connections","To define static file paths","To manage user authentication","To store project configurations"],"answer":["To store project configurations"],"role":null,"experience_level":null,"category":null,"points":15,"label":null,"tags":null,"test":null,"section":null,"is_custom":true,"time":3000,"creator":10,"created_at":"2024-11-14T03:15:22.099414+01:00","updated_at":"2024-11-14T03:15:22.099417+01:00","instructions":null,"image_urls":null,"has_image":false,"is_shuffled":false},{"id":"3d9addd9-92ac-4329-ac24-ce0a99f375cd","type":"multiple_choice","question":"Which of the following is NOT a valid Django model field type?","answer_options":["IntegerField","CharField","DateField","ColorField"],"answer":["ColorField"],"role":null,"experience_level":null,"category":null,"points":10,"label":null,"tags":null,"test":null,"section":null,"is_custom":true,"time":3000,"creator":10,"created_at":"2024-11-14T03:15:22.099441+01:00","updated_at":"2024-11-14T03:15:22.099445+01:00","instructions":null,"image_urls":null,"has_image":false,"is_shuffled":false},{"id":"14e8432e-6554-4cab-9087-895299fa8efe","type":"true_false","question":"In Django, middleware components are executed before the request reaches a view.","answer_options":["True","False"],"answer":["True"],"role":null,"experience_level":null,"category":null,"points":10,"label":null,"tags":null,"test":null,"section":null,"is_custom":true,"time":3000,"creator":10,"created_at":"2024-11-14T03:15:22.099467+01:00","updated_at":"2024-11-14T03:15:22.099470+01:00","instructions":null,"image_urls":null,"has_image":false,"is_shuffled":false},{"id":"55952295-c733-4a4d-bf38-08cc7fd9186a","type":"multiple_choice","question":"What is the primary key in a Django model?","answer_options":["A unique identifier for each record","A default integer ID field","A foreign key to another model","A composite of fields"],"answer":["A unique identifier for each record"],"role":null,"experience_level":null,"category":null,"points":15,"label":null,"tags":null,"test":null,"section":null,"is_custom":true,"time":3000,"creator":10,"created_at":"2024-11-14T03:15:22.099494+01:00","updated_at":"2024-11-14T03:15:22.099497+01:00","instructions":null,"image_urls":null,"has_image":false,"is_shuffled":false},{"id":"0c887805-7855-49ee-ad6f-6b1a24c79cb8","type":"multiple_choice","question":"Which method is used to retrieve a model instance by its primary key in Django?","answer_options":[".get()",".retrieve()",".find()",".query()"],"answer":[".get()"],"role":null,"experience_level":null,"category":null,"points":10,"label":null,"tags":null,"test":null,"section":null,"is_custom":true,"time":3000,"creator":10,"created_at":"2024-11-14T03:15:22.099521+01:00","updated_at":"2024-11-14T03:15:22.099525+01:00","instructions":null,"image_urls":null,"has_image":false,"is_shuffled":false},{"id":"f3b3662d-86c1-4341-b28a-93ac4251dcd2","type":"multiple_choice","question":"What is the default database backend used by Django?","answer_options":["MySQL","PostgreSQL","SQLite","Oracle"],"answer":["SQLite"],"role":null,"experience_level":null,"category":null,"points":10,"label":null,"tags":null,"test":null,"section":null,"is_custom":true,"time":3000,"creator":10,"created_at":"2024-11-14T03:15:22.099548+01:00","updated_at":"2024-11-14T03:15:22.099551+01:00","instructions":null,"image_urls":null,"has_image":false,"is_shuffled":false},{"id":"dc605b0d-cbfe-47cf-accf-38388a5540bb","type":"multiple_choice","question":"Which of the following is a valid way to create a new Django app?","answer_options":["python manage.py startproject","python manage.py startapp","python startapp","python manage.py createapp"],"answer":["python manage.py startapp"],"role":null,"experience_level":null,"category":null,"points":15,"label":null,"tags":null,"test":null,"section":null,"is_custom":true,"time":3000,"creator":10,"created_at":"2024-11-14T03:15:22.099574+01:00","updated_at":"2024-11-14T03:15:22.099578+01:00","instructions":null,"image_urls":null,"has_image":false,"is_shuffled":false},{"id":"9525a4fa-0865-421c-97ff-f96eb0d6dfc8","type":"multiple_choice","question":"What Django feature allows the reusability of code across different projects?","answer_options":["Reusable apps","Middleware","Templates","Views"],"answer":["Reusable apps"],"role":null,"experience_level":null,"category":null,"points":15,"label":null,"tags":null,"test":null,"section":null,"is_custom":true,"time":3000,"creator":10,"created_at":"2024-11-14T03:15:22.099603+01:00","updated_at":"2024-11-14T03:15:22.099606+01:00","instructions":null,"image_urls":null,"has_image":false,"is_shuffled":false},{"id":"5ed19fc9-7464-4490-bbfb-4f309fab5937","type":"multiple_choice","question":"Which of the following is used to handle session data in Django?","answer_options":["SessionMiddleware","UserSessions","SessionHandler","RequestSessions"],"answer":["SessionMiddleware"],"role":null,"experience_level":null,"category":null,"points":10,"label":null,"tags":null,"test":null,"section":null,"is_custom":true,"time":3000,"creator":10,"created_at":"2024-11-14T03:15:22.099630+01:00","updated_at":"2024-11-14T03:15:22.099634+01:00","instructions":null,"image_urls":null,"has_image":false,"is_shuffled":false},{"id":"cb23dd4a-8b9c-4707-baac-d7002b017d5a","type":"multiple_choice","question":"Which of the following is a valid decorator for a Django view that requires login?","answer_options":["@permission_required","@login_required","@is_authenticated","@user_required"],"answer":["@login_required"],"role":null,"experience_level":null,"category":null,"points":15,"label":null,"tags":null,"test":null,"section":null,"is_custom":true,"time":3000,"creator":10,"created_at":"2024-11-14T03:15:22.099657+01:00","updated_at":"2024-11-14T03:15:22.099660+01:00","instructions":null,"image_urls":null,"has_image":false,"is_shuffled":false},{"id":"377ed416-5794-4474-b31a-8ce46b86fcd5","type":"multiple_choice","question":"What Django feature allows the reusability of code across different projects?","answer_options":["Reusable apps","Middleware","Templates","Views"],"answer":["Reusable apps"],"role":null,"experience_level":null,"category":null,"points":15,"label":null,"tags":null,"test":null,"section":null,"is_custom":true,"time":3000,"creator":10,"created_at":"2024-11-14T03:43:47.777851+01:00","updated_at":"2024-11-14T03:43:47.777855+01:00","instructions":null,"image_urls":null,"has_image":false,"is_shuffled":false},{"id":"8ef8064a-2519-4be3-8302-8fd8721eb6c8","type":"multiple_choice","question":"Which of the following is used to handle session data in Django?","answer_options":["SessionMiddleware","UserSessions","SessionHandler","RequestSessions"],"answer":["SessionMiddleware"],"role":null,"experience_level":null,"category":null,"points":10,"label":null,"tags":null,"test":null,"section":null,"is_custom":true,"time":3000,"creator":10,"created_at":"2024-11-14T03:43:47.777881+01:00","updated_at":"2024-11-14T03:43:47.777885+01:00","instructions":null,"image_urls":null,"has_image":false,"is_shuffled":false},{"id":"884be506-acf7-4ac3-9cc7-10b556d40c04","type":"multiple_choice","question":"Which of the following is a valid decorator for a Django view that requires login?","answer_options":["@permission_required","@login_required","@is_authenticated","@user_required"],"answer":["@login_required"],"role":null,"experience_level":null,"category":null,"points":15,"label":null,"tags":null,"test":null,"section":null,"is_custom":true,"time":3000,"creator":10,"created_at":"2024-11-14T03:43:47.777908+01:00","updated_at":"2024-11-14T03:43:47.777912+01:00","instructions":null,"image_urls":null,"has_image":false,"is_shuffled":false}]}