{"count":15,"next":"https://dev.getlinked.ai/recruiter/fetch_all_recruiters/?page=2","previous":null,"results":[{"id":2,"company_email":null,"verified":true,"type_of_recruiter":"PERSONAL_RECRUITER","profile_picture":null,"role":"OWNER","created_at":"2024-10-10T19:44:15.383268+01:00","updated_at":"2024-10-10T19:44:15.405295+01:00","user":{"id":"2bb65cdb-834f-4e19-80c8-78a2003e0c06","first_name":"Kassia","middle_name":"Ezekiel","last_name":"Sule","email":"kassia@mailinator.com","email_verified":true,"phone_number":"2347068000001","date_of_birth":null,"gender":"F","user_type":"RECRUITER"},"company":{"id":2,"name":"Ashluxe","address":"","website":"https://getlinked-main-dev-frontend.vercel.app/register/recruiter","industry":"Retail","size":null,"description":"Delivery, Modelling Agency","logo":"http://res.cloudinary.com/dhgp0fmlh/image/upload/v1728585852/company_logos/pu1xfna4bhmomcbdnlqd.jpg","type_of_company":"PERSONAL","company_domain":null,"created_at":"2024-10-10T19:44:12.730784+01:00"}},{"id":3,"company_email":null,"verified":true,"type_of_recruiter":"PERSONAL_RECRUITER","profile_picture":null,"role":"OWNER","created_at":"2024-10-11T08:35:41.976786+01:00","updated_at":"2024-10-11T08:35:41.996016+01:00","user":{"id":"455fcf8f-d5e3-4566-b85c-4976aca5c6c4","first_name":"Adere","middle_name":null,"last_name":"Sandra","email":"adere@yopmail.com","email_verified":true,"phone_number":"2343 809 6550","date_of_birth":null,"gender":"F","user_type":"RECRUITER"},"company":{"id":3,"name":"jaded","address":"","website":"www.Jaded.com","industry":"Technology and Information Technology (IT)","size":null,"description":"We deal in IT","logo":"http://res.cloudinary.com/dhgp0fmlh/image/upload/v1728632140/company_logos/l0t95k7aqym5iqsb7cgu.png","type_of_company":"PERSONAL","company_domain":null,"created_at":"2024-10-11T08:35:41.164759+01:00"}},{"id":7,"company_email":null,"verified":true,"type_of_recruiter":"PERSONAL_RECRUITER","profile_picture":null,"role":"OWNER","created_at":"2024-10-11T15:44:57.117405+01:00","updated_at":"2024-10-11T15:44:57.128366+01:00","user":{"id":"c34c990e-16f1-4881-84e2-cc2761dc2c95","first_name":"Bamise","middle_name":null,"last_name":"Bamise","email":"bamise@mailinator.com","email_verified":true,"phone_number":"2347122332223","date_of_birth":null,"gender":"M","user_type":"RECRUITER"},"company":{"id":7,"name":"Palm.Studio_04@","address":"","website":"www.plugin.com","industry":"Technology and Information Technology (IT)","size":null,"description":"We trade.","logo":"http://res.cloudinary.com/dhgp0fmlh/image/upload/v1728657895/company_logos/s2jfn6m7xzxm1l5xvnmm.jpg","type_of_company":"PERSONAL","company_domain":null,"created_at":"2024-10-11T15:44:56.045198+01:00"}},{"id":10,"company_email":null,"verified":true,"type_of_recruiter":"PERSONAL_RECRUITER","profile_picture":null,"role":"OWNER","created_at":"2024-10-11T17:01:25.385337+01:00","updated_at":"2024-10-11T17:01:25.404783+01:00","user":{"id":"89566214-54ec-4a87-a782-d0667b832a87","first_name":"Arike","middle_name":"Ezekiel","last_name":"Ade","email":"arike@mailinator.com","email_verified":true,"phone_number":"2347069068701","date_of_birth":null,"gender":"F","user_type":"RECRUITER"},"company":{"id":10,"name":"Arike Blaze","address":"","website":"arike.com","industry":"Retail","size":null,"description":"Retail and trading","logo":"http://res.cloudinary.com/dhgp0fmlh/image/upload/v1728662484/company_logos/rzl8qyf1lcelaoj18e1p.jpg","type_of_company":"PERSONAL","company_domain":null,"created_at":"2024-10-11T17:01:24.597543+01:00"}},{"id":11,"company_email":"dodo@libertyng.com","verified":false,"type_of_recruiter":"HR_PERSONNEL","profile_picture":null,"role":"Hiring Manager","created_at":"2024-10-18T14:21:09.985256+01:00","updated_at":"2024-10-18T14:21:09.985276+01:00","user":{"id":"31ba7740-baf3-43fe-b5c7-6b8322fcdb88","first_name":"Mide","middle_name":null,"last_name":"Mide","email":"mide@mailinator.com","email_verified":true,"phone_number":"+2347122765443","date_of_birth":null,"gender":"F","user_type":"RECRUITER"},"company":{"id":1,"name":"Liberty Pay","address":"Plot 629 Agbama Housing Estate","website":"www.libertyng.com","industry":"Technology and Information Technology (IT)","size":"1-50","description":"Liberty Pay is here to revolutionize and bridge the gap between talented individuals and businesses in need of their expertise by utilizing the power of cutting-edge technology to streamline the process for businesses to swiftly and efficiently find the perfect candidates. Simultaneously, talented individuals can effortlessly explore job opportunities that align with their unique skills and experience.","logo":"http://res.cloudinary.com/dhgp0fmlh/image/upload/v1728548096/company_logos/iskocjwthojl0l94zohe.png","type_of_company":"COOPERATE","company_domain":"libertyng.com","created_at":"2024-10-10T09:14:57.010100+01:00"}},{"id":15,"company_email":"abisola+3@assurdly.com","verified":true,"type_of_recruiter":"HR_PERSONNEL","profile_picture":null,"role":"Hiring Manager","created_at":"2024-10-21T12:10:25.633973+01:00","updated_at":"2024-10-21T12:11:18.827668+01:00","user":{"id":"0fe28a1a-f90d-4d3c-bb68-39d17ddad018","first_name":"Abisola","middle_name":null,"last_name":"Oyedotun","email":"abisola+3@assurdly.com","email_verified":true,"phone_number":"+2347062616265","date_of_birth":"1999-10-01","gender":"F","user_type":"RECRUITER"},"company":{"id":33,"name":"AB Tech","address":"329 Faustino Trail","website":"https://www.libertyng.com/","industry":"Games","size":"15","description":"Get Wyse Get Rewarded is a promo product of Whispa Konnect Ltd, a licensed mobile value added service company based in Lagos Nigeria. We provide services for industries like Fintech, Lending, Software development and gamification. Other products include SMS messaging, USSD and Voice.","logo":"http://res.cloudinary.com/dhgp0fmlh/image/upload/v1729506516/company_logos/x3vurko1afqhbhkhddsa.jpg","type_of_company":"COOPERATE","company_domain":"assurdly.com","created_at":"2024-10-21T11:28:37.116275+01:00"}},{"id":16,"company_email":"abisola+4@assurdly.com","verified":true,"type_of_recruiter":"HR_PERSONNEL","profile_picture":null,"role":"Hiring Manager","created_at":"2024-10-21T13:15:17.221550+01:00","updated_at":"2024-10-21T13:57:15.118669+01:00","user":{"id":"64cb4683-0403-48e3-b970-5a46d7b4ce3f","first_name":"Joseph","middle_name":null,"last_name":"Chinedu","email":"abisola+4@assurdly.com","email_verified":true,"phone_number":"+2347085493990","date_of_birth":"1995-12-12","gender":"M","user_type":"RECRUITER"},"company":{"id":38,"name":"Indiana Cooperations","address":"No 6, peace of mind city.","website":"https://www.libertyng.com/","industry":"Fintech","size":"15","description":"Get Wyse Get Rewarded is a promo product of Whispa Konnect Ltd, a licensed mobile value added service company based in Lagos Nigeria. We provide services for industries like Fintech, Lending, Software development and gamification. Other products include SMS messaging, USSD and Voice.","logo":"http://res.cloudinary.com/dhgp0fmlh/image/upload/v1729512803/company_logos/lrxcwqsbpqcw4drteotd.jpg","type_of_company":"COOPERATE","company_domain":"assurdly.com","created_at":"2024-10-21T13:13:23.768671+01:00"}},{"id":17,"company_email":"abisola+30@assurdly.com","verified":true,"type_of_recruiter":"HR_PERSONNEL","profile_picture":null,"role":"Human Resources","created_at":"2024-10-23T15:55:05.934363+01:00","updated_at":"2024-10-23T15:56:21.775189+01:00","user":{"id":"40c60e47-6f6e-4eb4-b6e7-a554a0426f79","first_name":"Dianne","middle_name":null,"last_name":"Umar","email":"dianne@mailinator.com","email_verified":true,"phone_number":"+2347066068801","date_of_birth":null,"gender":"F","user_type":"RECRUITER"},"company":{"id":38,"name":"Indiana Cooperations","address":"No 6, peace of mind city.","website":"https://www.libertyng.com/","industry":"Fintech","size":"15","description":"Get Wyse Get Rewarded is a promo product of Whispa Konnect Ltd, a licensed mobile value added service company based in Lagos Nigeria. We provide services for industries like Fintech, Lending, Software development and gamification. Other products include SMS messaging, USSD and Voice.","logo":"http://res.cloudinary.com/dhgp0fmlh/image/upload/v1729512803/company_logos/lrxcwqsbpqcw4drteotd.jpg","type_of_company":"COOPERATE","company_domain":"assurdly.com","created_at":"2024-10-21T13:13:23.768671+01:00"}},{"id":18,"company_email":"wonara5856@advitize.com","verified":true,"type_of_recruiter":"HR_PERSONNEL","profile_picture":null,"role":"Human Resources Associate","created_at":"2024-10-23T17:16:50.306575+01:00","updated_at":"2024-10-23T17:17:53.097765+01:00","user":{"id":"844b6f42-ad90-46c4-9ac4-ac3fb6250bb2","first_name":"Doyin","middle_name":null,"last_name":"David","email":"doyin@mailinator.com","email_verified":true,"phone_number":"+2347066069801","date_of_birth":null,"gender":"F","user_type":"RECRUITER"},"company":{"id":39,"name":"Advertize","address":"Isolo,Lagos","website":"advetize.com","industry":"Entertainment and Media","size":"1-50","description":"Advertisement and Media publicity","logo":"http://res.cloudinary.com/dhgp0fmlh/image/upload/v1729700208/company_logos/dpmyfslhdvj0200dteui.jpg","type_of_company":"COOPERATE","company_domain":"advitize.com","created_at":"2024-10-23T17:16:49.313078+01:00"}},{"id":19,"company_email":null,"verified":true,"type_of_recruiter":"PERSONAL_RECRUITER","profile_picture":null,"role":"OWNER","created_at":"2024-10-23T19:20:35.645200+01:00","updated_at":"2024-10-23T19:20:35.676139+01:00","user":{"id":"67a811ce-b16d-4599-b67f-285dab111956","first_name":"Olawale","middle_name":null,"last_name":"Jason","email":"ola@mailinator.com","email_verified":true,"phone_number":"+2348057395545","date_of_birth":null,"gender":"M","user_type":"RECRUITER"},"company":{"id":40,"name":"Revolution","address":"","website":"revolution.com","industry":"Real Estate and Construction","size":null,"description":"Construction of roads and buildings","logo":"http://res.cloudinary.com/dhgp0fmlh/image/upload/v1729707634/company_logos/nehkh1mauzpgbh2hrqdn.jpg","type_of_company":"PERSONAL","company_domain":null,"created_at":"2024-10-23T19:20:34.562105+01:00"}}]}