{"count":29,"next":"https://dev.getlinked.ai/recruiter/create-company/?page=2","previous":null,"results":[{"id":1,"name":"Liberty Pay","address":"Plot 629 Agbama Housing Estate","website":"www.libertyng.com","industry":"Technology and Information Technology (IT)","size":"1-50","description":"Liberty Pay is here to revolutionize and bridge the gap between talented individuals and businesses in need of their expertise by utilizing the power of cutting-edge technology to streamline the process for businesses to swiftly and efficiently find the perfect candidates. Simultaneously, talented individuals can effortlessly explore job opportunities that align with their unique skills and experience.","logo":"http://res.cloudinary.com/dhgp0fmlh/image/upload/v1728548096/company_logos/iskocjwthojl0l94zohe.png","type_of_company":"COOPERATE","company_domain":"libertyng.com","created_at":"2024-10-10T09:14:57.010100+01:00"},{"id":2,"name":"Ashluxe","address":"","website":"https://getlinked-main-dev-frontend.vercel.app/register/recruiter","industry":"Retail","size":null,"description":"Delivery, Modelling Agency","logo":"http://res.cloudinary.com/dhgp0fmlh/image/upload/v1728585852/company_logos/pu1xfna4bhmomcbdnlqd.jpg","type_of_company":"PERSONAL","company_domain":null,"created_at":"2024-10-10T19:44:12.730784+01:00"},{"id":3,"name":"jaded","address":"","website":"www.Jaded.com","industry":"Technology and Information Technology (IT)","size":null,"description":"We deal in IT","logo":"http://res.cloudinary.com/dhgp0fmlh/image/upload/v1728632140/company_logos/l0t95k7aqym5iqsb7cgu.png","type_of_company":"PERSONAL","company_domain":null,"created_at":"2024-10-11T08:35:41.164759+01:00"},{"id":4,"name":"AJay Constructions","address":"","website":"https://getlinked-main-dev-frontend.vercel.app/register/recruiter","industry":"Technology and Information Technology (IT)","size":null,"description":"Delivery, Modelling Agency","logo":"http://res.cloudinary.com/dhgp0fmlh/image/upload/v1728651300/company_logos/kxx1mxtlbyhwmhiicfkp.jpg","type_of_company":"PERSONAL","company_domain":null,"created_at":"2024-10-11T13:55:00.827103+01:00"},{"id":5,"name":"AB GLOBAL","address":"","website":"https://getlinked-main-dev-frontend.vercel.app/register/recruiter","industry":"Technology and Information Technology (IT)","size":null,"description":"Delivery, Modelling Agency","logo":"http://res.cloudinary.com/dhgp0fmlh/image/upload/v1728651376/company_logos/gtjbrb1nrz4porue77se.jpg","type_of_company":"PERSONAL","company_domain":null,"created_at":"2024-10-11T13:56:17.150317+01:00"},{"id":6,"name":"AB GLobal","address":"","website":"https://getlinked-main-dev-frontend.vercel.app/register/recruiter","industry":"Technology and Information Technology (IT)","size":null,"description":"Delivery, Modelling Agency","logo":"http://res.cloudinary.com/dhgp0fmlh/image/upload/v1728651422/company_logos/xauaetoahqsyyikft5y3.jpg","type_of_company":"PERSONAL","company_domain":null,"created_at":"2024-10-11T13:57:02.519589+01:00"},{"id":7,"name":"Palm.Studio_04@","address":"","website":"www.plugin.com","industry":"Technology and Information Technology (IT)","size":null,"description":"We trade.","logo":"http://res.cloudinary.com/dhgp0fmlh/image/upload/v1728657895/company_logos/s2jfn6m7xzxm1l5xvnmm.jpg","type_of_company":"PERSONAL","company_domain":null,"created_at":"2024-10-11T15:44:56.045198+01:00"},{"id":8,"name":"Arike Collections","address":"","website":"arike.com","industry":"Retail","size":null,"description":"Clothing","logo":"http://res.cloudinary.com/dhgp0fmlh/image/upload/v1728662166/company_logos/xlylpz26xevns01xyv5s.jpg","type_of_company":"PERSONAL","company_domain":null,"created_at":"2024-10-11T16:56:06.898089+01:00"},{"id":9,"name":"Shinwa High","address":"","website":"arike.com","industry":"Retail","size":null,"description":"Clothing","logo":"http://res.cloudinary.com/dhgp0fmlh/image/upload/v1728662227/company_logos/erq62vhh2jlm0rg939zr.jpg","type_of_company":"PERSONAL","company_domain":null,"created_at":"2024-10-11T16:57:08.573142+01:00"},{"id":10,"name":"Arike Blaze","address":"","website":"arike.com","industry":"Retail","size":null,"description":"Retail and trading","logo":"http://res.cloudinary.com/dhgp0fmlh/image/upload/v1728662484/company_logos/rzl8qyf1lcelaoj18e1p.jpg","type_of_company":"PERSONAL","company_domain":null,"created_at":"2024-10-11T17:01:24.597543+01:00"}]}