{"count":16,"next":"https://dev.getlinked.ai/assessments/tests/?page=2&role_id=4","previous":null,"results":[{"id":"0ca3bff2-647c-48f8-93ca-50bafc5e3039","total_questions":2,"question_types":["multiple_choice","multiple_response"],"question_set":[{"id":"fe3c3d55-ea4b-4a13-863b-068c66a0a8d7","type":"multiple_response","question":"What are the key components of successful verbal communication for a Network Engineer? Select all that apply.","answer_options":["English","Yoruba","Igbo","Hausa"],"answer":["English","Igbo"],"role":1,"experience_level":"entry_level","category":null,"points":0,"label":null,"tags":[],"test":"0ca3bff2-647c-48f8-93ca-50bafc5e3039","section":null,"is_custom":false,"time":3000,"creator":null,"created_at":"2024-10-29T19:54:53.546466+01:00","updated_at":"2024-10-31T14:32:59.599765+01:00","instructions":"","image_urls":[],"has_image":false},{"id":"fc569373-b75d-4870-b995-00f4c93b3191","type":"multiple_choice","question":"What is the first step you would take when troubleshooting a network connectivity issue?","answer_options":["LAN","WLAN","PLAN","SLAN"],"answer":["WLAN","LAN"],"role":1,"experience_level":"entry_level","category":null,"points":0,"label":null,"tags":[],"test":"0ca3bff2-647c-48f8-93ca-50bafc5e3039","section":null,"is_custom":false,"time":3000,"creator":null,"created_at":"2024-10-29T19:54:53.569329+01:00","updated_at":"2024-10-31T14:33:59.573426+01:00","instructions":"","image_urls":[],"has_image":false}],"relevant_roles":[{"id":1,"name":"Network Engineer","use_ai":true},{"id":4,"name":"Systems Administrator","use_ai":false},{"id":5,"name":"IT Support Specialist","use_ai":false},{"id":6,"name":"Network Technician","use_ai":false},{"id":7,"name":"IT Security Analyst","use_ai":false},{"id":8,"name":"Network Administrator","use_ai":false},{"id":9,"name":"IT Consultant","use_ai":false},{"id":10,"name":"Help Desk Technician","use_ai":false},{"id":11,"name":"IT Technician","use_ai":false},{"id":12,"name":"IT Specialist","use_ai":false}],"name":"Disaster Recovery Planning Test for Network Engineer (Entry Level)","description":"This test is designed to evaluate the candidate's knowledge and skills in disaster recovery planning specifically for network engineering roles at an entry-level position.","summary":"The test assesses the candidate's understanding of disaster recovery planning principles, network infrastructure, and problem-solving abilities in the context of network engineering.","skills_tested":"['Disaster recovery planning', 'Network infrastructure', 'Problem-solving', 'Technical knowledge']","experience_level":"entry_level","tags":["Disaster Recovery","Network Engineering","Entry Level"],"label":null,"section":"acfb6aca-bd88-4d6d-9281-407e7199e61e"},{"id":"e10d97c2-d25e-4613-8ff3-6ea1b04ace2f","total_questions":0,"question_types":[],"question_set":[],"relevant_roles":[{"id":1,"name":"Network Engineer","use_ai":true},{"id":4,"name":"Systems Administrator","use_ai":false},{"id":5,"name":"IT Support Specialist","use_ai":false},{"id":6,"name":"Network Technician","use_ai":false},{"id":8,"name":"Network Administrator","use_ai":false},{"id":9,"name":"IT Consultant","use_ai":false},{"id":30,"name":"Network Analyst","use_ai":false},{"id":31,"name":"Network Operations Center (NOC) Technician","use_ai":false},{"id":32,"name":"Technical Support Engineer","use_ai":false},{"id":33,"name":"Network Security Analyst","use_ai":false}],"name":"Entry-Level Network Design Test","description":"This test is designed to evaluate the knowledge and skills of entry-level Network Engineers in network design principles and practices.","summary":"The test assesses the candidate's understanding of network design concepts, ability to analyze network requirements, and proficiency in designing network solutions.","skills_tested":"['Network design principles', 'Network analysis', 'Network solution design']","experience_level":"entry_level","tags":["Network Design","Entry-Level","Technical Skills"],"label":null,"section":"acfb6aca-bd88-4d6d-9281-407e7199e61e"},{"id":"5ed9d869-13c8-44a9-baeb-442b9a194e64","total_questions":0,"question_types":[],"question_set":[],"relevant_roles":[{"id":1,"name":"Network Engineer","use_ai":true},{"id":4,"name":"Systems Administrator","use_ai":false},{"id":5,"name":"IT Support Specialist","use_ai":false},{"id":6,"name":"Network Technician","use_ai":false},{"id":8,"name":"Network Administrator","use_ai":false},{"id":30,"name":"Network Analyst","use_ai":false},{"id":31,"name":"Network Operations Center (NOC) Technician","use_ai":false},{"id":33,"name":"Network Security Analyst","use_ai":false},{"id":35,"name":"Telecommunications Specialist","use_ai":false},{"id":36,"name":"Network Support Engineer","use_ai":false}],"name":"Network Protocols Test","description":"This test is designed to evaluate the knowledge and understanding of network protocols for entry-level Network Engineer roles.","summary":"The Network Protocols Test assesses candidates on their understanding of various network protocols and their ability to troubleshoot network issues.","skills_tested":"['Knowledge of network protocols', 'Troubleshooting network issues', 'Understanding of network communication']","experience_level":"entry_level","tags":["Network Protocols","Entry-Level","Technical Skills"],"label":null,"section":"acfb6aca-bd88-4d6d-9281-407e7199e61e"},{"id":"7bfc3f70-a3b2-437f-bf36-6c774115a4f8","total_questions":0,"question_types":[],"question_set":[],"relevant_roles":[{"id":1,"name":"Network Engineer","use_ai":true},{"id":4,"name":"Systems Administrator","use_ai":false},{"id":5,"name":"IT Support Specialist","use_ai":false},{"id":6,"name":"Network Technician","use_ai":false},{"id":8,"name":"Network Administrator","use_ai":false},{"id":9,"name":"IT Consultant","use_ai":false},{"id":10,"name":"Help Desk Technician","use_ai":false},{"id":12,"name":"IT Specialist","use_ai":false},{"id":30,"name":"Network Analyst","use_ai":false},{"id":32,"name":"Technical Support Engineer","use_ai":false}],"name":"Network Engineer Troubleshooting Skills Test","description":"This test is designed to evaluate the troubleshooting skills of entry-level Network Engineers in identifying and resolving network issues.","summary":"The Network Engineer Troubleshooting Skills Test assesses candidates' ability to diagnose and resolve network problems efficiently.","skills_tested":"['Network troubleshooting', 'Problem-solving', 'Analytical thinking', 'Technical knowledge']","experience_level":"entry_level","tags":["Troubleshooting","Network Engineer","Entry-level"],"label":null,"section":"acfb6aca-bd88-4d6d-9281-407e7199e61e"},{"id":"3f641e4c-5971-4873-bbf8-c9695c58f46f","total_questions":0,"question_types":[],"question_set":[],"relevant_roles":[{"id":1,"name":"Network Engineer","use_ai":true},{"id":4,"name":"Systems Administrator","use_ai":false},{"id":5,"name":"IT Support Specialist","use_ai":false},{"id":8,"name":"Network Administrator","use_ai":false},{"id":9,"name":"IT Consultant","use_ai":false},{"id":10,"name":"Help Desk Technician","use_ai":false},{"id":11,"name":"IT Technician","use_ai":false},{"id":30,"name":"Network Analyst","use_ai":false},{"id":32,"name":"Technical Support Engineer","use_ai":false},{"id":37,"name":"Systems Engineer","use_ai":false}],"name":"Network Engineer Communication Skills Test","description":"This test is designed to evaluate the communication skills of entry-level Network Engineers. It assesses their ability to effectively convey technical information, collaborate with team members, and communicate with non-technical stakeholders.","summary":"The Network Engineer Communication Skills Test measures the candidate's proficiency in verbal and written communication, technical documentation, and interpersonal skills essential for success in a network engineering role.","skills_tested":"['Verbal Communication', 'Written Communication', 'Technical Documentation', 'Interpersonal Skills']","experience_level":"entry_level","tags":["Communication Skills","Technical Communication","Entry-Level"],"label":null,"section":"acfb6aca-bd88-4d6d-9281-407e7199e61e"},{"id":"ffa88d67-3292-4403-9de0-57773dc13fd5","total_questions":0,"question_types":[],"question_set":[],"relevant_roles":[{"id":1,"name":"Network Engineer","use_ai":true},{"id":4,"name":"Systems Administrator","use_ai":false},{"id":5,"name":"IT Support Specialist","use_ai":false},{"id":8,"name":"Network Administrator","use_ai":false},{"id":44,"name":"Security Analyst","use_ai":false},{"id":45,"name":"Cybersecurity Specialist","use_ai":false},{"id":46,"name":"Information Security Officer","use_ai":false},{"id":47,"name":"IT Security Consultant","use_ai":false},{"id":48,"name":"Network Security Engineer","use_ai":false},{"id":49,"name":"Security Operations Center (SOC) Analyst","use_ai":false}],"name":"Firewall Management Test","description":"This test is designed to evaluate the candidate's knowledge and skills in managing firewalls within a network infrastructure.","summary":"The Firewall Management Test assesses the candidate's ability to configure, monitor, and troubleshoot firewalls to ensure network security.","skills_tested":"['Firewall configuration', 'Network security', 'Troubleshooting', 'Firewall monitoring']","experience_level":"entry_level","tags":["Firewall Management","Network Security","IT Infrastructure"],"label":null,"section":"acfb6aca-bd88-4d6d-9281-407e7199e61e"},{"id":"ff199b5c-172d-4e95-bcc2-dc45a63f3649","total_questions":0,"question_types":[],"question_set":[],"relevant_roles":[{"id":1,"name":"Network Engineer","use_ai":true},{"id":4,"name":"Systems Administrator","use_ai":false},{"id":5,"name":"IT Support Specialist","use_ai":false},{"id":6,"name":"Network Technician","use_ai":false},{"id":8,"name":"Network Administrator","use_ai":false},{"id":11,"name":"IT Technician","use_ai":false},{"id":32,"name":"Technical Support Engineer","use_ai":false},{"id":34,"name":"IT Analyst","use_ai":false},{"id":37,"name":"Systems Engineer","use_ai":false},{"id":53,"name":"Junior DevOps Engineer","use_ai":false}],"name":"Configuration Management Test for Network Engineer (Entry Level)","description":"This test is designed to evaluate the candidate's knowledge and skills in configuration management specifically for network engineering roles at an entry-level position.","summary":"The test will assess the candidate's understanding of configuration management principles, tools, and best practices in the context of network engineering.","skills_tested":"['Knowledge of configuration management tools', 'Understanding of version control systems', 'Ability to troubleshoot configuration issues', 'Knowledge of network infrastructure', 'Attention to detail']","experience_level":"entry_level","tags":["Configuration Management","Network Engineering","Entry Level"],"label":null,"section":"acfb6aca-bd88-4d6d-9281-407e7199e61e"},{"id":"cd2ca38a-8127-4da0-b9a9-bbfba11fd911","total_questions":0,"question_types":[],"question_set":[],"relevant_roles":[{"id":1,"name":"Network Engineer","use_ai":true},{"id":3,"name":"Backend Developer","use_ai":true},{"id":4,"name":"Systems Administrator","use_ai":false},{"id":5,"name":"IT Support Specialist","use_ai":false},{"id":6,"name":"Network Technician","use_ai":false},{"id":7,"name":"IT Security Analyst","use_ai":false},{"id":8,"name":"Network Administrator","use_ai":false},{"id":11,"name":"IT Technician","use_ai":false},{"id":13,"name":"Administrative Assistant","use_ai":false},{"id":25,"name":"Quality Assurance Analyst","use_ai":false}],"name":"Network Engineer Analytical Skills Test","description":null,"summary":null,"skills_tested":null,"experience_level":"entry_level","tags":[],"label":null,"section":"64a585fa-f9f9-4b86-82c0-a341c1bc669e"},{"id":"c699d12b-39c4-4f8b-95e1-ec34c8b05586","total_questions":0,"question_types":[],"question_set":[],"relevant_roles":[{"id":1,"name":"Network Engineer","use_ai":true},{"id":3,"name":"Backend Developer","use_ai":true},{"id":4,"name":"Systems Administrator","use_ai":false},{"id":5,"name":"IT Support Specialist","use_ai":false},{"id":6,"name":"Network Technician","use_ai":false},{"id":7,"name":"IT Security Analyst","use_ai":false},{"id":8,"name":"Network Administrator","use_ai":false},{"id":9,"name":"IT Consultant","use_ai":false},{"id":10,"name":"Help Desk Technician","use_ai":false},{"id":11,"name":"IT Technician","use_ai":false}],"name":"Network Protocols Test","description":null,"summary":null,"skills_tested":null,"experience_level":"entry_level","tags":[],"label":null,"section":"e08fe415-aba0-48b7-a293-1ef4e3d17f72"},{"id":"ba274477-ee07-4246-a8ac-c92571dddd01","total_questions":0,"question_types":[],"question_set":[],"relevant_roles":[{"id":1,"name":"Network Engineer","use_ai":true},{"id":3,"name":"Backend Developer","use_ai":true},{"id":4,"name":"Systems Administrator","use_ai":false},{"id":5,"name":"IT Support Specialist","use_ai":false},{"id":6,"name":"Network Technician","use_ai":false},{"id":7,"name":"IT Security Analyst","use_ai":false},{"id":11,"name":"IT Technician","use_ai":false},{"id":12,"name":"IT Specialist","use_ai":false},{"id":13,"name":"Administrative Assistant","use_ai":false},{"id":14,"name":"Data Entry Clerk","use_ai":false}],"name":"Network Engineer Troubleshooting Skills Test","description":null,"summary":null,"skills_tested":null,"experience_level":"entry_level","tags":[],"label":null,"section":"e08fe415-aba0-48b7-a293-1ef4e3d17f72"}]}