{"count":76,"next":"https://dev.getlinked.ai/recruiter/fetch_all_recruiters/?page=2","previous":null,"results":[{"id":2,"company_email":null,"verified":true,"type_of_recruiter":"PERSONAL_RECRUITER","profile_picture":null,"role":"OWNER","created_at":"2024-10-10T19:44:15.383268","updated_at":"2024-10-10T19:44:15.405295","user":{"id":"2bb65cdb-834f-4e19-80c8-78a2003e0c06","first_name":"Kassia","middle_name":"Uyoyo","last_name":"Sule","email":"kassia@mailinator.com","email_verified":true,"phone_number":"2347068000001","date_of_birth":null,"gender":"F","user_type":"RECRUITER","address":null},"company":{"id":2,"name":"Ashluxe","address":"Ojodu, Berger","website":"https://getlinked-main-dev-frontend.vercel.app/register/recruiter","industry":"Retail","size":null,"description":"Delivery, Modelling Agency","logo":"http://res.cloudinary.com/dhgp0fmlh/image/upload/v1728585852/company_logos/pu1xfna4bhmomcbdnlqd.jpg","type_of_company":"PERSONAL","company_domain":null,"company_support_email":null,"email_template_header":null,"created_at":"2024-10-10T19:44:12.730784"}},{"id":3,"company_email":null,"verified":true,"type_of_recruiter":"PERSONAL_RECRUITER","profile_picture":null,"role":"OWNER","created_at":"2024-10-11T08:35:41.976786","updated_at":"2024-10-11T08:35:41.996016","user":{"id":"455fcf8f-d5e3-4566-b85c-4976aca5c6c4","first_name":"Adere","middle_name":null,"last_name":"Sandra","email":"adere@yopmail.com","email_verified":true,"phone_number":"2343 809 6550","date_of_birth":null,"gender":"F","user_type":"RECRUITER","address":null},"company":{"id":3,"name":"jaded","address":"","website":"www.Jaded.com","industry":"Technology and Information Technology (IT)","size":null,"description":"We deal in IT","logo":"http://res.cloudinary.com/dhgp0fmlh/image/upload/v1728632140/company_logos/l0t95k7aqym5iqsb7cgu.png","type_of_company":"PERSONAL","company_domain":null,"company_support_email":null,"email_template_header":null,"created_at":"2024-10-11T08:35:41.164759"}},{"id":77,"company_email":"kim@mailinator.com","verified":true,"type_of_recruiter":"PERSONAL_RECRUITER","profile_picture":null,"role":"HIRING MANAGER","created_at":"2024-11-22T16:47:47.429038","updated_at":"2024-12-10T17:57:26.750905","user":{"id":"95d7bb0f-fc2a-4b74-93f2-9a9a04ff4ee2","first_name":"Kim","middle_name":null,"last_name":"Ophrah","email":"kim@mailinator.com","email_verified":true,"phone_number":"09143423993","date_of_birth":null,"gender":"Female","user_type":"RECRUITER","address":null},"company":{"id":10,"name":"Arike Blaze","address":"","website":"arike.com","industry":"Retail","size":"1-50","description":"Hospitality and Tourism","logo":"http://res.cloudinary.com/dhgp0fmlh/image/upload/v1728662484/company_logos/rzl8qyf1lcelaoj18e1p.jpg","type_of_company":"PERSONAL","company_domain":null,"company_support_email":null,"email_template_header":null,"created_at":"2024-10-11T17:01:24.597543"}},{"id":7,"company_email":null,"verified":true,"type_of_recruiter":"PERSONAL_RECRUITER","profile_picture":null,"role":"OWNER","created_at":"2024-10-11T15:44:57.117405","updated_at":"2024-10-11T15:44:57.128366","user":{"id":"c34c990e-16f1-4881-84e2-cc2761dc2c95","first_name":"Bamise","middle_name":null,"last_name":"Bamise","email":"bamise@mailinator.com","email_verified":true,"phone_number":"2347122332223","date_of_birth":null,"gender":"M","user_type":"RECRUITER","address":null},"company":{"id":7,"name":"Palm.Studio_04@","address":"","website":"www.plugin.com","industry":"Technology and Information Technology (IT)","size":null,"description":"We trade.","logo":"http://res.cloudinary.com/dhgp0fmlh/image/upload/v1728657895/company_logos/s2jfn6m7xzxm1l5xvnmm.jpg","type_of_company":"PERSONAL","company_domain":null,"company_support_email":null,"email_template_header":null,"created_at":"2024-10-11T15:44:56.045198"}},{"id":10,"company_email":null,"verified":true,"type_of_recruiter":"PERSONAL_RECRUITER","profile_picture":null,"role":"OWNER","created_at":"2024-10-11T17:01:25.385337","updated_at":"2024-10-11T17:01:25.404783","user":{"id":"89566214-54ec-4a87-a782-d0667b832a87","first_name":"Ayobami","middle_name":"Annie","last_name":"Alaran","email":"arike@mailinator.com","email_verified":true,"phone_number":"2347069068701","date_of_birth":null,"gender":"F","user_type":"RECRUITER","address":"Some"},"company":{"id":10,"name":"Arike Blaze","address":"","website":"arike.com","industry":"Retail","size":"1-50","description":"Hospitality and Tourism","logo":"http://res.cloudinary.com/dhgp0fmlh/image/upload/v1728662484/company_logos/rzl8qyf1lcelaoj18e1p.jpg","type_of_company":"PERSONAL","company_domain":null,"company_support_email":null,"email_template_header":null,"created_at":"2024-10-11T17:01:24.597543"}},{"id":11,"company_email":"dodo@libertyng.com","verified":false,"type_of_recruiter":"HR_PERSONNEL","profile_picture":null,"role":"Hiring Manager","created_at":"2024-10-18T14:21:09.985256","updated_at":"2024-10-18T14:21:09.985276","user":{"id":"31ba7740-baf3-43fe-b5c7-6b8322fcdb88","first_name":"Mide","middle_name":null,"last_name":"Mide","email":"mide@mailinator.com","email_verified":true,"phone_number":"+2347122765443","date_of_birth":null,"gender":"F","user_type":"RECRUITER","address":null},"company":{"id":1,"name":"Liberty Pay","address":"Plot 629 Agbama Housing Estate","website":"https://www.libertyng.com","industry":"Technology and Information Technology (IT)","size":"1-50","description":"Liberty Pay is here to revolutionize and bridge the gap between talented individuals and businesses in need of their expertise by utilizing the power of cutting-edge technology to streamline the process for businesses to swiftly and efficiently find the perfect candidates. Simultaneously, talented individuals can effortlessly explore job opportunities that align with their unique skills and experience.","logo":"http://res.cloudinary.com/dhgp0fmlh/image/upload/v1732188466/company_logos/bcbvzjblsqwegw9dhhcv.png","type_of_company":"COOPERATE","company_domain":"libertyng.com","company_support_email":"Getlinkeddoc@gmail.com","email_template_header":"https://res.cloudinary.com/dhgp0fmlh/image/upload/v1732797225/email_templates/dehdivwqfeojjl5sv5g7.png","created_at":"2024-10-10T09:14:57.010100"}},{"id":15,"company_email":"abisola+3@assurdly.com","verified":true,"type_of_recruiter":"HR_PERSONNEL","profile_picture":null,"role":"Hiring Manager","created_at":"2024-10-21T12:10:25.633973","updated_at":"2024-10-21T12:11:18.827668","user":{"id":"0fe28a1a-f90d-4d3c-bb68-39d17ddad018","first_name":"Abisola","middle_name":"Annie","last_name":"Oyedotun","email":"abisola+3@assurdly.com","email_verified":true,"phone_number":"+2347062616265","date_of_birth":"1999-10-01","gender":"F","user_type":"RECRUITER","address":null},"company":{"id":33,"name":"AB Tech","address":"329 Faustino Trail","website":"https://www.libertyng.com/","industry":"Games","size":"15","description":"Get Wyse Get Rewarded is a promo product of Whispa Konnect Ltd, a licensed mobile value added service company based in Lagos Nigeria. We provide services for industries like Fintech, Lending, Software development and gamification. Other products include SMS messaging, USSD and Voice.","logo":"http://res.cloudinary.com/dhgp0fmlh/image/upload/v1729506516/company_logos/x3vurko1afqhbhkhddsa.jpg","type_of_company":"COOPERATE","company_domain":"assurdly.com","company_support_email":null,"email_template_header":null,"created_at":"2024-10-21T11:28:37.116275"}},{"id":41,"company_email":null,"verified":true,"type_of_recruiter":"PERSONAL_RECRUITER","profile_picture":null,"role":"CEO","created_at":"2024-11-03T20:15:59.659742","updated_at":"2024-11-03T20:15:59.669130","user":{"id":"49c2ebdc-b2b4-4f17-868f-c314414cabbf","first_name":"Wanni","middle_name":null,"last_name":"Danbaki","email":"wanni@mailinator.com","email_verified":true,"phone_number":"2347062616265","date_of_birth":null,"gender":"M","user_type":"RECRUITER","address":null},"company":{"id":56,"name":"Hickle, Bins and Watsica","address":"6145 Granville Crest","website":"www.joeventures.com","industry":"Tools","size":"1-50","description":"Hospitality and Tourism","logo":"http://res.cloudinary.com/dhgp0fmlh/image/upload/v1730661289/company_logos/kn5lwq0wagvrjbnlczyg.jpg","type_of_company":"PERSONAL","company_domain":"jose.biz","company_support_email":null,"email_template_header":null,"created_at":"2024-11-03T20:14:50.211295"}},{"id":42,"company_email":"dami@libertyng.com","verified":false,"type_of_recruiter":"HR_PERSONNEL","profile_picture":null,"role":"Hiring Manager","created_at":"2024-11-03T22:44:12.052213","updated_at":"2024-11-03T22:44:12.052273","user":{"id":"588130fc-4842-4ddf-bade-f863f2e5e6a1","first_name":"lee","middle_name":null,"last_name":"lee","email":"lee@yopmail.com","email_verified":true,"phone_number":"+2349021122345","date_of_birth":null,"gender":"M","user_type":"ADMIN","address":null},"company":{"id":1,"name":"Liberty Pay","address":"Plot 629 Agbama Housing Estate","website":"https://www.libertyng.com","industry":"Technology and Information Technology (IT)","size":"1-50","description":"Liberty Pay is here to revolutionize and bridge the gap between talented individuals and businesses in need of their expertise by utilizing the power of cutting-edge technology to streamline the process for businesses to swiftly and efficiently find the perfect candidates. Simultaneously, talented individuals can effortlessly explore job opportunities that align with their unique skills and experience.","logo":"http://res.cloudinary.com/dhgp0fmlh/image/upload/v1732188466/company_logos/bcbvzjblsqwegw9dhhcv.png","type_of_company":"COOPERATE","company_domain":"libertyng.com","company_support_email":"Getlinkeddoc@gmail.com","email_template_header":"https://res.cloudinary.com/dhgp0fmlh/image/upload/v1732797225/email_templates/dehdivwqfeojjl5sv5g7.png","created_at":"2024-10-10T09:14:57.010100"}},{"id":16,"company_email":"abisola+4@assurdly.com","verified":true,"type_of_recruiter":"HR_PERSONNEL","profile_picture":null,"role":"Hiring Manager","created_at":"2024-10-21T13:15:17.221550","updated_at":"2024-10-21T13:57:15.118669","user":{"id":"64cb4683-0403-48e3-b970-5a46d7b4ce3f","first_name":"Joseph","middle_name":null,"last_name":"Chinedu","email":"abisola+4@assurdly.com","email_verified":true,"phone_number":"+2347085493990","date_of_birth":"1995-12-12","gender":"M","user_type":"RECRUITER","address":null},"company":{"id":38,"name":"Indiana Cooperations","address":"No 6, peace of mind city.","website":"https://www.libertyng.com/","industry":"Fintech","size":"15","description":"Get Wyse Get Rewarded is a promo product of Whispa Konnect Ltd, a licensed mobile value added service company based in Lagos Nigeria. We provide services for industries like Fintech, Lending, Software development and gamification. Other products include SMS messaging, USSD and Voice.","logo":"http://res.cloudinary.com/dhgp0fmlh/image/upload/v1729512803/company_logos/lrxcwqsbpqcw4drteotd.jpg","type_of_company":"COOPERATE","company_domain":"assurdly.com","company_support_email":null,"email_template_header":null,"created_at":"2024-10-21T13:13:23.768671"}}]}