{"count":19,"next":"https://dev.getlinked.ai/services/cv_parser_group/?email=arike%40mailinator.com&page=2","previous":null,"results":[{"id":41,"name":"First","role":null,"keywords":null,"email":"arike@mailinator.com","filter_group":true,"created_at":"2025-01-02T16:18:36.841009","updated_at":"2025-01-02T16:18:36.841041","cv_count":0,"unique_id":null},{"id":40,"name":"Meeee","role":null,"keywords":null,"email":"arike@mailinator.com","filter_group":true,"created_at":"2024-12-10T19:04:11.741823","updated_at":"2024-12-10T19:04:11.742145","cv_count":0,"unique_id":null},{"id":39,"name":"ATS Classic","role":"ATS Classic - Role","keywords":["Classic,ATS"],"email":"arike@mailinator.com","filter_group":false,"created_at":"2024-12-09T03:55:26.591234","updated_at":"2024-12-09T03:55:26.591253","cv_count":1,"unique_id":"66319a19-6f00-47b0-82ec-247ac45d40171733712926"},{"id":38,"name":"Frontend Developers Batch A","role":null,"keywords":null,"email":"arike@mailinator.com","filter_group":true,"created_at":"2024-11-29T17:50:41.609448","updated_at":"2024-11-29T17:50:41.609484","cv_count":0,"unique_id":null},{"id":37,"name":"Backend Developers Batch F","role":null,"keywords":null,"email":"arike@mailinator.com","filter_group":true,"created_at":"2024-11-29T17:49:53.443212","updated_at":"2024-11-29T17:49:53.443265","cv_count":0,"unique_id":null},{"id":36,"name":"Backend Developers Batch E","role":null,"keywords":null,"email":"arike@mailinator.com","filter_group":true,"created_at":"2024-11-27T13:12:17.044068","updated_at":"2024-11-27T13:12:17.044089","cv_count":0,"unique_id":null},{"id":30,"name":"Backend Developers Batch D","role":null,"keywords":null,"email":"arike@mailinator.com","filter_group":true,"created_at":"2024-11-27T11:46:50.389460","updated_at":"2024-11-27T11:46:50.389487","cv_count":0,"unique_id":null},{"id":25,"name":"Alpha2","role":null,"keywords":null,"email":"arike@mailinator.com","filter_group":true,"created_at":"2024-11-24T09:20:12.549743","updated_at":"2024-11-24T09:20:12.549766","cv_count":4,"unique_id":"2c5e81c3-657d-4815-a669-6d585a7dddfe1736880285"},{"id":23,"name":"Team Titanium","role":"Designer","keywords":["Figma,,Adobe"],"email":"arike@mailinator.com","filter_group":false,"created_at":"2024-11-24T09:09:01.786879","updated_at":"2024-11-24T09:09:01.786900","cv_count":0,"unique_id":null},{"id":18,"name":"Fantastic","role":"newbies","keywords":["ibadan"],"email":"arike@mailinator.com","filter_group":false,"created_at":"2024-11-23T10:32:40.252623","updated_at":"2024-11-23T10:32:40.252645","cv_count":0,"unique_id":null}]}