{"count":70,"next":"https://dev.getlinked.ai/global_intern/get_global_interns/?page=2","previous":null,"results":[{"id":1,"user":{"first_name":"Chuks","last_name":"Ibeji","phone_number":"07013729134","email":"chukaibeji@yopmail.com","gender":"Male"},"role":"Software Engineer","years_of_experience":"2","current_location":"New York, USA","cv":null,"cv_file_path":null,"linkedin_profile":"https://www.linkedin.com/in/tobitaiwo","portfolio_website":"https://johndoeportfolio.com","create_password":null,"created_at":"2024-11-07T09:55:08.398421+01:00","updated_at":"2024-11-07T09:55:08.398436+01:00"},{"id":2,"user":{"first_name":"Chuks","last_name":"Ibejindu","phone_number":"07013729134","email":"chukaibeji1@yopmail.com","gender":"Male"},"role":"Software Engineer","years_of_experience":"2","current_location":"New York, USA","cv":"transactionReceipt (1).pdf","cv_file_path":"https://nyc3.digitaloceanspaces.com/whisper-space/media/getlinked/transactionReceipt%20%281%29.pdf?AWSAccessKeyId=DO00RFUZQBAXKQXVRK7W&Signature=cOt97fP4sNTmJXkbwxCWplbYCc0%3D&Expires=1730973670","linkedin_profile":"https://www.linkedin.com/in/tobitaiwo","portfolio_website":"https://johndoeportfolio.com","create_password":null,"created_at":"2024-11-07T10:01:10.971691+01:00","updated_at":"2024-11-07T10:01:10.971707+01:00"},{"id":97,"user":{"first_name":"Frances","last_name":"Yundt","phone_number":"07013729134","email":"Ladarius@mailinator.com","gender":"Male"},"role":"Software Engineer","years_of_experience":"2","current_location":"New York, USA","cv":null,"cv_file_path":null,"linkedin_profile":"https://www.linkedin.com/in/tobitaiwo","portfolio_website":"https://johndoeportfolio.com","create_password":null,"created_at":"2025-01-12T18:20:19.377396+01:00","updated_at":"2025-01-12T18:20:19.377417+01:00"},{"id":106,"user":{"first_name":"Tabitha","last_name":"Powlowski","phone_number":"07013729134","email":"Marion@mailinator.com","gender":"Male"},"role":"Software Engineer","years_of_experience":"2","current_location":"New York, USA","cv":null,"cv_file_path":null,"linkedin_profile":"https://www.linkedin.com/in/tobitaiwo","portfolio_website":"https://johndoeportfolio.com","create_password":null,"created_at":"2025-01-14T18:12:36.821704+01:00","updated_at":"2025-01-14T18:12:36.821736+01:00"},{"id":115,"user":{"first_name":"Henrietta","last_name":"Hintz","phone_number":"07013729134","email":"Garland@mailinator.com","gender":"Male"},"role":"Software Engineer","years_of_experience":"2","current_location":"New York, USA","cv":null,"cv_file_path":null,"linkedin_profile":"https://www.linkedin.com/in/tobitaiwo","portfolio_website":"https://johndoeportfolio.com","create_password":null,"created_at":"2025-01-15T19:43:00.519984+01:00","updated_at":"2025-01-15T19:43:00.520005+01:00"},{"id":117,"user":{"first_name":"Dixie","last_name":"Rempel","phone_number":"07013729134","email":"Carmel@mailinator.com","gender":"Male"},"role":"Software Engineer","years_of_experience":"2","current_location":"New York, USA","cv":null,"cv_file_path":null,"linkedin_profile":"https://www.linkedin.com/in/tobitaiwo","portfolio_website":"https://johndoeportfolio.com","create_password":null,"created_at":"2025-01-17T19:54:31.793221+01:00","updated_at":"2025-01-17T19:54:31.793247+01:00"},{"id":11,"user":{"first_name":"Katrina","last_name":"Corwin","phone_number":"07013729134","email":"Idella@mailinator.com","gender":"Male"},"role":"Software Engineer","years_of_experience":"2","current_location":"New York, USA","cv":null,"cv_file_path":null,"linkedin_profile":"https://www.linkedin.com/in/tobitaiwo","portfolio_website":"https://johndoeportfolio.com","create_password":null,"created_at":"2024-11-18T10:51:59.139690+01:00","updated_at":"2024-11-18T10:51:59.139714+01:00"},{"id":12,"user":{"first_name":"Marian","last_name":"Corkery","phone_number":"07013729134","email":"Oran@mailinator.com","gender":"Male"},"role":"Software Engineer","years_of_experience":"2","current_location":"New York, USA","cv":null,"cv_file_path":null,"linkedin_profile":"https://www.linkedin.com/in/tobitaiwo","portfolio_website":"https://johndoeportfolio.com","create_password":null,"created_at":"2024-11-18T11:12:12.989499+01:00","updated_at":"2024-11-18T11:12:12.989514+01:00"},{"id":13,"user":{"first_name":"Beauty","last_name":"Tukura","phone_number":"+2347086757548","email":"beauty@mailinator.com","gender":"F"},"role":"Software Engineer","years_of_experience":"2","current_location":"New York, USA","cv":null,"cv_file_path":null,"linkedin_profile":"https://www.linkedin.com/in/tobitaiwo","portfolio_website":"https://johndoeportfolio.com","create_password":null,"created_at":"2024-11-18T12:35:38.000014+01:00","updated_at":"2024-11-18T12:35:38.000031+01:00"},{"id":122,"user":{"first_name":"Mitchell","last_name":"Simonis","phone_number":"07013729134","email":"Mya@mailinator.com","gender":"Male"},"role":"Software Engineer","years_of_experience":"2","current_location":"New York, USA","cv":null,"cv_file_path":null,"linkedin_profile":"https://www.linkedin.com/in/tobitaiwo","portfolio_website":"https://johndoeportfolio.com","create_password":null,"created_at":"2025-01-22T19:44:58.333364+01:00","updated_at":"2025-01-22T19:44:58.333392+01:00"}]}