{"count":204,"next":"https://dev.getlinked.ai/assessments/my-assessments/?is_published=false&page=2","previous":null,"results":[{"id":"13806b3b-fcc2-4419-b05b-534f7b82ea0d","name":"Quality Assurance Assessment","no_candidates":0,"completed":[],"ongoing":[],"not_started":[],"created_at":"2025-03-09T21:11:14.354002+01:00","deadline":null,"is_published":false,"candidates_data":[]},{"id":"1ae9d374-fed4-4372-a095-8e3cd8451ba9","name":"Science Assessment","no_candidates":0,"completed":[],"ongoing":[],"not_started":[],"created_at":"2025-03-09T21:11:14.171087+01:00","deadline":null,"is_published":false,"candidates_data":[]},{"id":"5a9cfdd4-3c20-4c64-86e4-c9cd5e7d2dc8","name":"Quality Assurance Assessment","no_candidates":0,"completed":[],"ongoing":[],"not_started":[],"created_at":"2025-03-07T19:54:24.613267+01:00","deadline":null,"is_published":false,"candidates_data":[]},{"id":"9269f1ff-18a6-452d-a44e-6b90a9ec2e46","name":"Science Assessment","no_candidates":0,"completed":[],"ongoing":[],"not_started":[],"created_at":"2025-03-07T19:54:24.409448+01:00","deadline":null,"is_published":false,"candidates_data":[]},{"id":"24fc05ce-bddf-4bd8-a726-37694f27816b","name":"Quality Assurance Assessment","no_candidates":0,"completed":[],"ongoing":[],"not_started":[],"created_at":"2025-03-05T19:46:44.725413+01:00","deadline":null,"is_published":false,"candidates_data":[]},{"id":"6ecdd938-c31e-4450-851b-3cbc2102ae36","name":"Science Assessment","no_candidates":0,"completed":[],"ongoing":[],"not_started":[],"created_at":"2025-03-05T19:46:44.542527+01:00","deadline":null,"is_published":false,"candidates_data":[]},{"id":"53182775-a3e8-4bff-ae13-75d1ea967830","name":"Quality Assurance Assessment","no_candidates":0,"completed":[],"ongoing":[],"not_started":[],"created_at":"2025-03-03T08:56:13.248652+01:00","deadline":null,"is_published":false,"candidates_data":[]},{"id":"de493285-1918-40e3-8a15-55bcc92740de","name":"Science Assessment","no_candidates":0,"completed":[],"ongoing":[],"not_started":[],"created_at":"2025-03-03T08:56:12.822347+01:00","deadline":null,"is_published":false,"candidates_data":[]},{"id":"5cccde13-05f4-44a4-8575-fcd9143484ba","name":"Quality Assurance Assessment","no_candidates":0,"completed":[],"ongoing":[],"not_started":[],"created_at":"2025-03-02T21:12:45.128594+01:00","deadline":null,"is_published":false,"candidates_data":[]},{"id":"89f3eb6e-364e-4d2d-bafa-37745a8c5ad9","name":"Science Assessment","no_candidates":0,"completed":[],"ongoing":[],"not_started":[],"created_at":"2025-03-02T21:12:44.676883+01:00","deadline":null,"is_published":false,"candidates_data":[]},{"id":"bb0de43f-d334-463e-8c03-8a28173d2908","name":"Quality Assurance Assessment","no_candidates":0,"completed":[],"ongoing":[],"not_started":[],"created_at":"2025-02-28T19:54:57.794110+01:00","deadline":null,"is_published":false,"candidates_data":[]},{"id":"48fded90-145e-4a8a-a3fe-33161b679db4","name":"Science Assessment","no_candidates":0,"completed":[],"ongoing":[],"not_started":[],"created_at":"2025-02-28T19:54:57.297087+01:00","deadline":null,"is_published":false,"candidates_data":[]},{"id":"2e3881bc-0282-4a6e-a457-58aa492cc15e","name":"Quality Assurance Assessment","no_candidates":0,"completed":[],"ongoing":[],"not_started":[],"created_at":"2025-02-26T19:45:52.833920+01:00","deadline":null,"is_published":false,"candidates_data":[]},{"id":"914cefaa-7831-4bab-9f74-d93403ae0399","name":"Science Assessment","no_candidates":0,"completed":[],"ongoing":[],"not_started":[],"created_at":"2025-02-26T19:45:52.434719+01:00","deadline":null,"is_published":false,"candidates_data":[]},{"id":"b40c152e-fb5d-434c-82ca-f17590b17225","name":"Quality Assurance Assessment","no_candidates":0,"completed":[],"ongoing":[],"not_started":[],"created_at":"2025-02-26T19:01:15.068710+01:00","deadline":null,"is_published":false,"candidates_data":[]},{"id":"c3957ab1-9e22-4726-8f78-427f5b64e669","name":"Science Assessment","no_candidates":0,"completed":[],"ongoing":[],"not_started":[],"created_at":"2025-02-26T19:01:14.450081+01:00","deadline":null,"is_published":false,"candidates_data":[]},{"id":"db08877d-85ad-4d8b-9ee9-2ec4e5d1336d","name":"Virtual Assistant Senior","no_candidates":0,"completed":[],"ongoing":[],"not_started":[],"created_at":"2025-02-25T15:39:02.916965+01:00","deadline":null,"is_published":false,"candidates_data":[]},{"id":"7f6f00f8-009f-4f21-aedb-387d4d57c88c","name":"Junior Role Interview","no_candidates":0,"completed":[],"ongoing":[],"not_started":[],"created_at":"2025-02-25T15:37:09.163729+01:00","deadline":null,"is_published":false,"candidates_data":[]},{"id":"2850c1c2-a02e-4e46-9775-9dcfc5213622","name":"A","no_candidates":0,"completed":[],"ongoing":[],"not_started":[],"created_at":"2025-02-25T13:21:43.175410+01:00","deadline":null,"is_published":false,"candidates_data":[]},{"id":"b1ffc61b-505a-42f2-8e69-9883b121f37c","name":"Quality Assurance Assessment","no_candidates":0,"completed":[],"ongoing":[],"not_started":[],"created_at":"2025-02-24T07:28:48.890486+01:00","deadline":null,"is_published":false,"candidates_data":[]},{"id":"d67b55ae-1997-437f-b091-67c60983fadb","name":"Science Assessment","no_candidates":0,"completed":[],"ongoing":[],"not_started":[],"created_at":"2025-02-24T07:28:48.618727+01:00","deadline":null,"is_published":false,"candidates_data":[]},{"id":"cef1af3c-e8bb-4bae-8a61-718f3ddc2a23","name":"Quality Assurance Assessment","no_candidates":0,"completed":[],"ongoing":[],"not_started":[],"created_at":"2025-02-23T21:11:47.674141+01:00","deadline":null,"is_published":false,"candidates_data":[]},{"id":"33ac518e-ca2e-4aff-b5bd-719d7f6811e3","name":"Science Assessment","no_candidates":0,"completed":[],"ongoing":[],"not_started":[],"created_at":"2025-02-23T21:11:47.348425+01:00","deadline":null,"is_published":false,"candidates_data":[]},{"id":"b44ccd3f-9a97-4502-94b3-a5738d347306","name":"Quality Assurance Assessment","no_candidates":0,"completed":[],"ongoing":[],"not_started":[],"created_at":"2025-02-19T19:45:00.851865+01:00","deadline":null,"is_published":false,"candidates_data":[]},{"id":"cfa92c91-fa88-4129-8aa9-f0daf04ebe38","name":"Science Assessment","no_candidates":0,"completed":[],"ongoing":[],"not_started":[],"created_at":"2025-02-19T19:45:00.449616+01:00","deadline":null,"is_published":false,"candidates_data":[]},{"id":"29506ef4-291d-4c02-8b52-5bdde3dd2154","name":"Ibrahim Azeez","no_candidates":0,"completed":[],"ongoing":[],"not_started":[],"created_at":"2025-02-14T15:58:42.154331+01:00","deadline":null,"is_published":false,"candidates_data":[]},{"id":"d0ec1653-9da3-424a-b40f-7034058f8e36","name":"Ibrahim Azeez","no_candidates":0,"completed":[],"ongoing":[],"not_started":[],"created_at":"2025-02-14T15:58:39.724101+01:00","deadline":null,"is_published":false,"candidates_data":[]},{"id":"c690d2ab-79da-4436-b056-fc5f0e01887b","name":"Quality Assurance Assessment","no_candidates":0,"completed":[],"ongoing":[],"not_started":[],"created_at":"2025-02-12T19:44:50.007695+01:00","deadline":null,"is_published":false,"candidates_data":[]},{"id":"cb46e364-102f-4288-af97-3998aa4fab2b","name":"Science Assessment","no_candidates":0,"completed":[],"ongoing":[],"not_started":[],"created_at":"2025-02-12T19:44:49.764400+01:00","deadline":null,"is_published":false,"candidates_data":[]},{"id":"87abcda8-a7d6-4bc9-9ccd-70ad9a354e5f","name":"QA Engineer","no_candidates":0,"completed":[],"ongoing":[],"not_started":[],"created_at":"2025-02-11T11:53:44.316900+01:00","deadline":null,"is_published":false,"candidates_data":[]},{"id":"6526ba77-efb1-47b7-84a7-6c6436ee0052","name":"QA Engineer","no_candidates":0,"completed":[],"ongoing":[],"not_started":[],"created_at":"2025-02-11T11:53:41.847490+01:00","deadline":null,"is_published":false,"candidates_data":[]},{"id":"ae4e7180-7fba-4d78-9d10-58d5e1567d22","name":"Entrance Exam 2010","no_candidates":0,"completed":[],"ongoing":[],"not_started":[],"created_at":"2025-02-10T14:58:59.394566+01:00","deadline":null,"is_published":false,"candidates_data":[]},{"id":"b49b87fa-1a09-41d0-a793-087b6165d20a","name":"Interview","no_candidates":0,"completed":[],"ongoing":[],"not_started":[],"created_at":"2025-02-10T14:57:54.707695+01:00","deadline":null,"is_published":false,"candidates_data":[]},{"id":"dd9d5276-4be9-4de1-801b-280532b756cb","name":"Assessment 2001","no_candidates":0,"completed":[],"ongoing":[],"not_started":[],"created_at":"2025-02-10T14:57:31.717764+01:00","deadline":null,"is_published":false,"candidates_data":[]},{"id":"38f92172-b3ac-4711-a592-22b7f0e0a567","name":"Assessment 2001","no_candidates":0,"completed":[],"ongoing":[],"not_started":[],"created_at":"2025-02-10T14:56:05.590098+01:00","deadline":null,"is_published":false,"candidates_data":[]},{"id":"7fa9d7e3-7ccf-4a48-9e1e-0c5dc8218437","name":"Entry level exam 2025","no_candidates":0,"completed":[],"ongoing":[],"not_started":[],"created_at":"2025-02-10T12:18:58.146867+01:00","deadline":null,"is_published":false,"candidates_data":[]},{"id":"e46f4979-5abb-442e-91f8-5bdfb9bd21fe","name":"Quality Assurance Assessment","no_candidates":0,"completed":[],"ongoing":[],"not_started":[],"created_at":"2025-02-09T21:11:16.068438+01:00","deadline":null,"is_published":false,"candidates_data":[]},{"id":"31e84855-1cde-496d-8392-2dfd6c260a36","name":"Science Assessment","no_candidates":0,"completed":[],"ongoing":[],"not_started":[],"created_at":"2025-02-09T21:11:15.958829+01:00","deadline":null,"is_published":false,"candidates_data":[]},{"id":"9d6f831e-77ea-4f2c-8a7a-5f9ff79109a7","name":"Quality Assurance Assessment","no_candidates":0,"completed":[],"ongoing":[],"not_started":[],"created_at":"2025-02-09T07:50:34.829353+01:00","deadline":null,"is_published":false,"candidates_data":[]},{"id":"52b62b8a-a42d-4057-9380-36ee843a3dcf","name":"Science Assessment","no_candidates":0,"completed":[],"ongoing":[],"not_started":[],"created_at":"2025-02-09T07:50:34.722964+01:00","deadline":null,"is_published":false,"candidates_data":[]},{"id":"0825adaf-17fb-4fea-a32e-789052d96aa6","name":"Quality Assurance Assessment","no_candidates":0,"completed":[],"ongoing":[],"not_started":[],"created_at":"2025-02-07T19:54:38.637446+01:00","deadline":null,"is_published":false,"candidates_data":[]},{"id":"481fbcbf-373e-4878-bd76-829da359e465","name":"Science Assessment","no_candidates":0,"completed":[],"ongoing":[],"not_started":[],"created_at":"2025-02-07T19:54:38.381893+01:00","deadline":null,"is_published":false,"candidates_data":[]},{"id":"fa6c0850-36f0-40b3-bf25-9b7123784315","name":"Quality Assurance Assessment","no_candidates":0,"completed":[],"ongoing":[],"not_started":[],"created_at":"2025-02-05T19:44:12.844344+01:00","deadline":null,"is_published":false,"candidates_data":[]},{"id":"c0007f48-3734-4990-9f03-9e805080e063","name":"Science Assessment","no_candidates":0,"completed":[],"ongoing":[],"not_started":[],"created_at":"2025-02-05T19:44:12.584596+01:00","deadline":null,"is_published":false,"candidates_data":[]},{"id":"05146303-001c-4648-bb45-b8c07f98642b","name":"Quality Assurance Assessment","no_candidates":0,"completed":[],"ongoing":[],"not_started":[],"created_at":"2025-02-04T15:25:23.335076+01:00","deadline":null,"is_published":false,"candidates_data":[]},{"id":"6a66a673-a5d3-440e-8edf-f7a6a40c7092","name":"Science Assessment","no_candidates":0,"completed":[],"ongoing":[],"not_started":[],"created_at":"2025-02-04T15:25:23.186223+01:00","deadline":null,"is_published":false,"candidates_data":[]},{"id":"3d726bc2-6f01-4ca2-8838-39634c6c8966","name":"Prep Assessment","no_candidates":0,"completed":[],"ongoing":[],"not_started":[],"created_at":"2025-02-03T11:54:41.053772+01:00","deadline":"2025-02-06T11:58:00+01:00","is_published":false,"candidates_data":[]},{"id":"bab61f2f-4904-41fc-8897-3f339e6defbd","name":"Quality Assurance Assessment","no_candidates":0,"completed":[],"ongoing":[],"not_started":[],"created_at":"2025-02-02T21:11:21.341856+01:00","deadline":null,"is_published":false,"candidates_data":[]},{"id":"25b9dd73-c3e2-4fc9-aa50-dd0a1a03b0e5","name":"Science Assessment","no_candidates":0,"completed":[],"ongoing":[],"not_started":[],"created_at":"2025-02-02T21:11:21.225757+01:00","deadline":null,"is_published":false,"candidates_data":[]},{"id":"563f6355-0b28-4356-877b-e7251aafa934","name":"Quality Assurance Assessment","no_candidates":0,"completed":[],"ongoing":[],"not_started":[],"created_at":"2025-02-02T09:48:14.879474+01:00","deadline":null,"is_published":false,"candidates_data":[]}]}