{"count":64,"next":"https://dev.getlinked.ai/assessments/question-sections/?page=2","previous":null,"results":[{"id":"acfb6aca-bd88-4d6d-9281-407e7199e61e","name":"Skills & Competency","created_at":"2025-03-07T13:33:24.719046+01:00","updated_at":"2025-03-07T13:33:24.737306+01:00"},{"id":"270ddeab-e351-467a-99f1-7624b977fa10","name":"Cognitive & Critical Thinking","created_at":"2025-03-07T13:33:24.719046+01:00","updated_at":"2025-03-07T13:33:24.737306+01:00"},{"id":"2ec03174-3a93-4e71-a603-28a55c860543","name":"Personality","created_at":"2025-03-07T13:33:24.719046+01:00","updated_at":"2025-03-07T13:33:24.737306+01:00"},{"id":"3ace1dec-0aa1-427e-929a-398e90483b55","name":"Emotional Intelligence","created_at":"2025-03-07T13:33:24.719046+01:00","updated_at":"2025-03-07T13:33:24.737306+01:00"},{"id":"73737226-54d1-411d-877d-f775451d1e45","name":"Skills","created_at":"2025-03-07T13:33:24.719046+01:00","updated_at":"2025-03-07T13:33:24.737306+01:00"},{"id":"454f0ef8-dd44-4bf6-a374-ad75cfcae9d9","name":"Skills","created_at":"2025-03-07T13:33:24.719046+01:00","updated_at":"2025-03-07T13:33:24.737306+01:00"},{"id":"686101a8-96b5-4868-ad76-d15b786861e3","name":"Skills","created_at":"2025-03-07T13:33:24.719046+01:00","updated_at":"2025-03-07T13:33:24.737306+01:00"},{"id":"7a404dd8-04dd-45e0-b827-9baaab483472","name":"Skills","created_at":"2025-03-07T13:33:24.719046+01:00","updated_at":"2025-03-07T13:33:24.737306+01:00"},{"id":"759739d4-876a-4168-8865-b900959af120","name":"Skills","created_at":"2025-03-07T13:33:24.719046+01:00","updated_at":"2025-03-07T13:33:24.737306+01:00"},{"id":"b64c8cb5-5e66-4013-b519-46c69ae82c15","name":"Skills","created_at":"2025-03-07T13:33:24.719046+01:00","updated_at":"2025-03-07T13:33:24.737306+01:00"}]}