{"count":16,"next":"https://dev.getlinked.ai/services/cv_parser_group/?email=arike%40mailinator.com&page=2","previous":null,"results":[{"id":38,"name":"Frontend Developers Batch A","role":null,"keywords":null,"email":"arike@mailinator.com","filter_group":true,"created_at":"2024-11-29T17:50:41.609448","updated_at":"2024-11-29T17:50:41.609484","cv_count":0,"unique_id":null},{"id":37,"name":"Backend Developers Batch F","role":null,"keywords":null,"email":"arike@mailinator.com","filter_group":true,"created_at":"2024-11-29T17:49:53.443212","updated_at":"2024-11-29T17:49:53.443265","cv_count":0,"unique_id":null},{"id":36,"name":"Backend Developers Batch E","role":null,"keywords":null,"email":"arike@mailinator.com","filter_group":true,"created_at":"2024-11-27T13:12:17.044068","updated_at":"2024-11-27T13:12:17.044089","cv_count":0,"unique_id":null},{"id":30,"name":"Backend Developers Batch D","role":null,"keywords":null,"email":"arike@mailinator.com","filter_group":true,"created_at":"2024-11-27T11:46:50.389460","updated_at":"2024-11-27T11:46:50.389487","cv_count":0,"unique_id":null},{"id":25,"name":"Alpha2","role":null,"keywords":null,"email":"arike@mailinator.com","filter_group":true,"created_at":"2024-11-24T09:20:12.549743","updated_at":"2024-11-24T09:20:12.549766","cv_count":0,"unique_id":null},{"id":23,"name":"Team Titanium","role":"Designer","keywords":["Figma,,Adobe"],"email":"arike@mailinator.com","filter_group":false,"created_at":"2024-11-24T09:09:01.786879","updated_at":"2024-11-24T09:09:01.786900","cv_count":0,"unique_id":null},{"id":18,"name":"Fantastic","role":"newbies","keywords":["ibadan"],"email":"arike@mailinator.com","filter_group":false,"created_at":"2024-11-23T10:32:40.252623","updated_at":"2024-11-23T10:32:40.252645","cv_count":0,"unique_id":null},{"id":17,"name":"xyz","role":"newbies","keywords":["ibadan"],"email":"arike@mailinator.com","filter_group":false,"created_at":"2024-11-23T10:32:05.968527","updated_at":"2024-11-23T10:32:05.968552","cv_count":0,"unique_id":null},{"id":13,"name":"Testing CV Group","role":null,"keywords":null,"email":"arike@mailinator.com","filter_group":true,"created_at":"2024-11-14T14:50:09.735805","updated_at":"2024-11-14T14:50:09.735868","cv_count":0,"unique_id":null},{"id":12,"name":"Eazeeee1","role":"Should this not be a dropdown?","keywords":["Skills,Education,Community Service"],"email":"arike@mailinator.com","filter_group":false,"created_at":"2024-11-13T10:44:57.450757","updated_at":"2024-11-13T10:44:57.450780","cv_count":0,"unique_id":null}]}